<?xml version="1.0" encoding="UTF-8"?>
<svg width="649px" height="216px" viewBox="-450 0 1500 216" version="1.1" xmlns="http://www.w3.org/2000/svg" xmlns:xlink="http://www.w3.org/1999/xlink">
    <!-- Generator: Sketch 50.2 (55047) - http://www.bohemiancoding.com/sketch -->
    <title>nombre</title>
    <desc>Created with Sketch.</desc>
    <defs></defs>
    <g id="Page-1" stroke="none" stroke-width="1" fill="none" fill-rule="evenodd">
        <g id="nombre" fill-rule="nonzero">
            <polygon id="Shape" fill="#58854D" points="10.4 92.9 10.4 179.8 0.3 179.8 0.3 0.4 10.4 0.4 10.4 76.7 67.7 0.4 80.7 0.4 26.9 72.6 96.4 179.8 84 179.8 20.3 80.7"></polygon>
            <path d="M136.1,159.1 C145.6,167.8 156.9,172.1 170,172.1 C184.1,172.1 196,167.1 206,157.2 C207.3,155.9 208.5,154.6 209.6,153.3 L220.3,157.1 C218.4,159.8 216.2,162.4 213.7,164.8 C201.7,176.8 187.1,182.8 170.1,182.8 C153.1,182.8 138.6,176.8 126.6,164.8 C114.6,152.8 108.6,138.2 108.6,121.2 C108.6,104.2 114.6,89.7 126.6,77.7 C138.6,65.7 153.1,59.7 170.1,59.7 C184.7,59.7 197.4,64.1 208.3,72.8 C210.1,74.3 211.9,75.9 213.7,77.7 C214.4,78.4 215,79 215.6,79.7 L208,87.3 L136.1,159.1 Z M200.4,80.5 C191.7,73.8 181.5,70.4 169.9,70.4 C155.9,70.4 144,75.4 134,85.3 C124,95.2 119.1,107.2 119.1,121.2 C119.1,132.8 122.5,142.9 129.2,151.7 L200.4,80.5 Z" id="Shape" fill="#FFFFFF"></path>
            <path d="M268,159.1 C277.5,167.8 288.8,172.1 301.9,172.1 C316,172.1 327.9,167.1 337.9,157.2 C339.2,155.9 340.4,154.6 341.5,153.3 L352.2,157.1 C350.3,159.8 348.1,162.4 345.6,164.8 C333.6,176.8 319,182.8 302,182.8 C285,182.8 270.5,176.8 258.5,164.8 C246.5,152.8 240.5,138.2 240.5,121.2 C240.5,104.2 246.5,89.7 258.5,77.7 C270.5,65.7 285,59.7 302,59.7 C316.6,59.7 329.3,64.1 340.2,72.8 C342,74.3 343.8,75.9 345.6,77.7 C346.3,78.4 346.9,79 347.5,79.7 L339.9,87.3 L268,159.1 Z M332.4,80.5 C323.7,73.8 313.5,70.4 301.9,70.4 C287.9,70.4 276,75.4 266,85.3 C256.1,95.2 251.1,107.2 251.1,121.2 C251.1,132.8 254.5,142.9 261.2,151.7 L332.4,80.5 Z" id="Shape" fill="#FFFFFF"></path>
            <path d="M487.4,157.9 C485.5,160.3 483.5,162.6 481.3,164.9 C469.3,176.9 454.7,182.9 437.7,182.9 C420.7,182.9 406.2,176.9 394.2,164.9 C382.2,152.9 376.2,138.4 376.2,121.4 C376.2,104.4 382.2,89.8 394.2,77.8 C406.2,65.8 420.7,59.8 437.7,59.8 C454.7,59.8 469.3,65.8 481.3,77.7 C483.6,80.1 485.7,82.6 487.7,85.2 L487.7,69.6 L497.8,69.6 L497.8,155.1 C497.8,171.6 491.9,185.7 480.2,197.5 C468.2,209.5 453.7,215.5 436.7,215.5 C419.7,215.5 405.1,209.5 393.1,197.5 C390.6,195 388.4,192.5 386.5,189.8 L397.2,186 C398.3,187.3 399.5,188.7 400.8,189.9 C410.7,199.8 422.7,204.8 436.8,204.8 C450.8,204.8 462.7,199.8 472.7,189.9 C481.7,180.9 486.6,170.2 487.4,157.9 Z M487.7,110.8 C485.8,101.2 481.1,92.7 473.8,85.4 C463.9,75.5 451.9,70.5 437.8,70.5 C423.7,70.5 411.8,75.5 401.8,85.4 C391.9,95.3 386.9,107.3 386.9,121.4 C386.9,135.5 391.9,147.4 401.8,157.4 C411.7,167.3 423.7,172.3 437.8,172.3 C451.9,172.3 463.8,167.3 473.8,157.4 C481,150.2 485.7,141.7 487.7,132.2 L487.7,110.8 Z" id="Shape" fill="#58854D"></path>
            <path d="M586.8,59.7 C603.8,59.7 618.4,65.7 630.4,77.7 C642.4,89.7 648.4,104.3 648.4,121.3 C648.4,138.3 642.4,152.8 630.4,164.8 C618.4,176.8 603.9,182.8 586.8,182.8 C569.8,182.8 555.3,176.8 543.3,164.8 C531.3,152.8 525.3,138.3 525.3,121.3 C525.3,104.3 531.3,89.7 543.3,77.7 C555.3,65.7 569.8,59.7 586.8,59.7 Z M550.8,85.4 C540.9,95.3 535.9,107.3 535.9,121.4 C535.9,135.5 540.9,147.4 550.8,157.3 C560.7,167.2 572.7,172.2 586.8,172.2 C600.9,172.2 612.8,167.2 622.8,157.3 C632.7,147.4 637.7,135.4 637.7,121.4 C637.7,107.3 632.7,95.4 622.8,85.4 C612.9,75.5 600.9,70.5 586.8,70.5 C572.7,70.5 560.7,75.4 550.8,85.4 Z" id="Shape" fill="#FFFFFF"></path>
        </g>
    </g>
</svg>